{"_type": "jobs", "aggregations": {"categories": [], "status": [{"key": 3, "doc_count": 1060}]}, "data": [], "links": {"first": null, "last": null, "prev": "http://api.topdev.vn/td/v2/jobs/?page=75", "next": null}, "meta": {"total": 743, "per_page": 10, "current_page": 76, "last_page": 75, "from": null, "to": null}}