{"_type": "jobs", "aggregations": {"categories": [], "status": [{"key": 3, "doc_count": 1060}]}, "data": [{"id": 2031529, "title": "Chuy\u00ean vi\u00ean Qu\u1ea3n l\u00fd d\u1ef1 \u00e1n", "content": "", "owned_id": 94308, "company": {"id": 94308, "display_name": "C\u00d4NG TY D\u1ecaCH V\u1ee4 MOBIFONE KHU V\u1ef0C 1 - CHI NH\u00c1NH T\u1ed4NG C\u00d4NG TY VI\u1ec4N TH\u00d4NG MOBIFONE(Mobifone KV1)", "image_logo": "https://assets.topdev.vn/images/2023/09/21/TopDev-177549202_3257575151011644_534526205120950655_n---1-MOBIFONE-1695262160.png", "slug": "cong-ty-dich-vu-mobifone-khu-vuc-1-chi-nhanh-tong-cong-ty-vien-thong-mobifone-mobifone-kv1", "detail_url": "https://topdev.vn/nha-tuyen-dung/cong-ty-dich-vu-mobifone-khu-vuc-1-chi-nhanh-tong-cong-ty-vien-thong-mobifone-mobifone-kv1-94308", "image_cover": "https://assets.topdev.vn/images/2023/09/21/TopDev-837fa632584f093eaa36fdb4d2a64f12-65041ae6d24e8---1-MOBIFONE-1695262161.jpg", "image_galleries": [{"id": 480486, "url": "https://assets.topdev.vn/images/2023/09/21/TopDev-b28456f7645a4c53943e0b423a8c0a30-1695262161.jpg", "path": "/images/2023/09/21/TopDev-b28456f7645a4c53943e0b423a8c0a30-1695262161.jpg", "name": "b28456f7645a4c53943e0b423a8c0a30.jpg", "uploaded": {"date": "21-09-2023", "datetime": "2023-09-21 09:09:21", "since": "2 weeks ago", "timestamp": 1695262161}, "source": "Unknown"}, {"id": 480487, "url": "https://assets.topdev.vn/images/2023/09/21/TopDev-837fa632584f093eaa36fdb4d2a64f12-65041ae696d56---1-MOBIFONE-%281%29-1695262161.jpg", "path": "/images/2023/09/21/TopDev-837fa632584f093eaa36fdb4d2a64f12-65041ae696d56---1-MOBIFONE-(1)-1695262161.jpg", "name": "837fa632584f093eaa36fdb4d2a64f12-65041ae696d56 - 1 MOBIFONE (1).jpg", "uploaded": {"date": "21-09-2023", "datetime": "2023-09-21 09:09:22", "since": "2 weeks ago", "timestamp": 1695262162}, "source": "Unknown"}, {"id": 480488, "url": "https://assets.topdev.vn/images/2023/09/21/TopDev-837fa632584f093eaa36fdb4d2a64f12-65041ae6ee896---1-MOBIFONE-1695262162.jpg", "path": "/images/2023/09/21/TopDev-837fa632584f093eaa36fdb4d2a64f12-65041ae6ee896---1-MOBIFONE-1695262162.jpg", "name": "837fa632584f093eaa36fdb4d2a64f12-65041ae6ee896 - 1 MOBIFONE.jpg", "uploaded": {"date": "21-09-2023", "datetime": "2023-09-21 09:09:23", "since": "2 weeks ago", "timestamp": 1695262163}, "source": "Unknown"}, {"id": 480489, "url": "https://assets.topdev.vn/images/2023/09/21/TopDev-7c27ecaaf574f068cf1541b1e1d42935-65041ae732018---1-MOBIFONE-1695262163.jpg", "path": "/images/2023/09/21/TopDev-7c27ecaaf574f068cf1541b1e1d42935-65041ae732018---1-MOBIFONE-1695262163.jpg", "name": "7c27ecaaf574f068cf1541b1e1d42935-65041ae732018 - 1 MOBIFONE.jpg", "uploaded": {"date": "21-09-2023", "datetime": "2023-09-21 09:09:23", "since": "2 weeks ago", "timestamp": 1695262163}, "source": "Unknown"}], "benefits": [{"value": "Tham gia c\u00e1c ch\u01b0\u01a1ng tr\u00ecnh b\u1ea3o hi\u1ec3m s\u1ee9c kho\u1ebb t\u1ea1i c\u00e1c C\u00f4ng ty B\u1ea3o hi\u1ec3m l\u1edbn, c\u00f3 uy t\u00edn (B\u1ea3o Minh, B\u1ea3o hi\u1ec3m h\u00e0ng kh\u00f4ng, PVI\u2026). Gi\u00e1 tr\u1ecb b\u1ea3o hi\u1ec3m l\u00ean t\u1edbi 400 tri\u1ec7u/n\u0103m.", "icon": "fa-pencil"}, {"value": "\u0110\u01b0\u1ee3c tham gia c\u00e1c kh\u00f3a \u0111\u00e0o t\u1ea1o \u0111\u1ec3 n\u00e2ng cao ki\u1ebfn th\u1ee9c, chuy\u00ean m\u00f4n.", "icon": "fa-pencil"}, {"value": "\u0110\u01b0\u1ee3c h\u01b0\u1edfng ch\u1ebf \u0111\u1ed9 \u0111i\u1ec7n tho\u1ea1i li\u00ean l\u1ea1c nghi\u1ec7p v\u1ee5 cho CB-CNV v\u00e0 c\u00e1c ch\u1ebf \u0111\u1ed9 \u01b0u \u0111\u00e3i khi s\u1eed d\u1ee5ng c\u00e1c d\u1ecbch v\u1ee5 c\u1ee7a MobiFone.", "icon": "fa-pencil"}, {"value": "Ph\u00fac l\u1ee3i: ngh\u1ec9 m\u00e1t, du xu\u00e2n, kh\u00e1m s\u1ee9c kh\u1ecfe h\u00e0ng n\u0103m, tr\u1ee3 c\u1ea5p \u1ed1m \u0111au, hi\u1ebfu, h\u1ec9\u2026", "icon": "fa-pencil"}, {"value": "Ngh\u1ec9 ng\u00e0y th\u1ee9 7 v\u00e0 ch\u1ee7 nh\u1eadt.", "icon": "fa-pencil"}], "skills_arr": ["Cloud", "Iot", "5G", "3G", "4G LTE"], "industries_arr": ["D\u1ecbch v\u1ee5 doanh nghi\u1ec7p"], "industries_str": "D\u1ecbch v\u1ee5 doanh nghi\u1ec7p", "is_followed": false}, "extra_skills": [], "skills_arr": ["Project Manager"], "skills_ids": [32], "job_types_str": "In Office", "job_levels_str": "All Levels", "job_levels_arr": ["All Levels"], "job_levels_ids": [8765], "addresses": {"address_region_ids": ["01"], "address_region_list": "Th\u00e0nh ph\u1ed1 H\u00e0 N\u1ed9i", "address_region_array": ["Th\u00e0nh ph\u1ed1 H\u00e0 N\u1ed9i"], "full_addresses": ["01 S\u1ed1 1 \u0111\u01b0\u1eddng Ph\u1ea1m V\u0103n B\u1ea1ch, Ph\u01b0\u1eddng Y\u00ean Ho\u00e0, Qu\u1eadn C\u1ea7u Gi\u1ea5y, Th\u00e0nh ph\u1ed1 H\u00e0 N\u1ed9i"], "sort_addresses": "Qu\u1eadn C\u1ea7u Gi\u1ea5y, H\u00e0 N\u1ed9i", "collection_addresses": [{"id": 185956, "ward": {"id": "00172", "value": "Ph\u01b0\u1eddng Y\u00ean Ho\u00e0"}, "province": {"id": "01", "value": "Th\u00e0nh ph\u1ed1 H\u00e0 N\u1ed9i"}, "district": {"id": "005", "value": "Qu\u1eadn C\u1ea7u Gi\u1ea5y"}, "postal_code": "100000", "full_address": "01 S\u1ed1 1 \u0111\u01b0\u1eddng Ph\u1ea1m V\u0103n B\u1ea1ch, Ph\u01b0\u1eddng Y\u00ean Ho\u00e0, Qu\u1eadn C\u1ea7u Gi\u1ea5y, Th\u00e0nh ph\u1ed1 H\u00e0 N\u1ed9i", "latitude": null, "longitude": null, "street": "01 S\u1ed1 1 \u0111\u01b0\u1eddng Ph\u1ea1m V\u0103n B\u1ea1ch"}]}, "detail_url": "https://topdev.vn/viec-lam/chuyen-vien-quan-ly-du-an-cong-ty-dich-vu-mobifone-khu-vuc-1-chi-nhanh-tong-cong-ty-vien-thong-mobifone-mobifone-kv1-2031529", "job_url": "", "slug": "chuyen-vien-quan-ly-du-an-cong-ty-dich-vu-mobifone-khu-vuc-1-chi-nhanh-tong-cong-ty-vien-thong-mobifone-mobifone-kv1", "salary": {"is_negotiable": "1", "unit": "MONTH", "min": 0, "max": 0, "currency": "VND", "min_estimate": "0", "max_estimate": "0", "currency_estimate": "VND", "value": "Th\u01b0\u01a1ng l\u01b0\u1ee3ng"}, "features": [], "packages": ["basic-plus"], "is_free": false, "is_basic": false, "is_basic_plus": true, "is_distinction": false, "is_salary_visible": true, "published": {"date": "21-09-2023", "datetime": "00:00:00 21-09-2023", "since": "3 tu\u1ea7n tr\u01b0\u1edbc"}, "refreshed": {"date": "11-10-2023", "datetime": "02:00:11 11-10-2023", "since": "4 ng\u00e0y tr\u01b0\u1edbc"}, "applied": null, "candidate": null, "is_applied": false, "is_followed": false, "is_blacklisted": false, "recalled_at": null, "is_remove_cv": false, "is_viewed": false, "requirements_arr": [{"value": ["Qu\u1ea3n tr\u1ecb d\u1ef1 \u00e1n: C\u00f3 kh\u1ea3 n\u0103ng ph\u00e2n t\u00edch \u0111\u00e1nh gi\u00e1 nh\u1eefng y\u00eau c\u1ea7u c\u1ee7a kh\u00e1ch h\u00e0ng \u0111\u1ec3 thi\u1ebft k\u1ebf gi\u1ea3i ph\u00e1p tri\u1ec3n khai d\u1ef1 \u00e1n cho kh\u00e1ch h\u00e0ng.", "C\u00f4ng ngh\u1ec7: C\u00f3 ki\u1ebfn th\u1ee9c chuy\u00ean s\u00e2u v\u1ec1 n\u1ec1n t\u1ea3ng v\u00e0 ng\u00f4n ng\u1eef l\u1eadp tr\u00ecnh"], "icon": "fa-circle"}]}, {"id": 2031527, "title": "Business Analyst (Product Owner)", "content": "<p style=\"text-align: justify;\"><span style=\"font-family: Roboto, Helvetica, Verdana, Arial, sans-serif; font-size: 15px;\">Athena is looking for an experienced Business Analyst/ Product Owner who is responsible for gathering and understanding business requirements, collating and preparing data, performing analyses, extracting insights, and making recommendations to assist the company in developing meaningful business solutions and operational improvements. The position is also expected to monitor progress to agreed measures and within set organizational procedures.</span></p>\r\n<p style=\"text-align: justify;\"><span style=\"font-family: Roboto, Helvetica, Verdana, Arial, sans-serif; font-size: 15px;\">The ideal candidate can work on multiple initiatives simultaneously and translate data into digestible and actionable insights that improve our businesses:</span></p>\r\n<ul>\r\n<li style=\"text-align: justify;\"><span style=\"font-family: Roboto, Helvetica, Verdana, Arial, sans-serif; font-size: 15px;\">Communicate with multiple internal teams (BOD, creative design, marketing, product) to understand and gather the requirements.</span></li>\r\n<li style=\"text-align: justify;\"><span style=\"font-family: Roboto, Helvetica, Verdana, Arial, sans-serif; font-size: 15px;\">Analyze requirements or ideas, and propose suitable approaches that bring high value to the stakeholders.</span></li>\r\n<li style=\"text-align: justify;\"><span style=\"font-family: Roboto, Helvetica, Verdana, Arial, sans-serif; font-size: 15px;\">Construct workflow charts and diagrams; write business software specifications/user stories/acceptance criteria</span></li>\r\n<li style=\"text-align: justify;\"><span style=\"font-family: Roboto, Helvetica, Verdana, Arial, sans-serif; font-size: 15px;\">Work closely with the development team to ensure features are being implemented to meet business needs.</span></li>\r\n<li style=\"text-align: justify;\"><span style=\"font-family: Roboto, Helvetica, Verdana, Arial, sans-serif; font-size: 15px;\">Support the development team in project planning, solution testing, and user training</span></li>\r\n<li style=\"text-align: justify;\"><span style=\"font-family: Roboto, Helvetica, Verdana, Arial, sans-serif; font-size: 15px;\">Recommends controls by identifying problems; writing improved procedures</span></li>\r\n<li style=\"text-align: justify;\"><span style=\"font-family: Roboto, Helvetica, Verdana, Arial, sans-serif; font-size: 15px;\">Other tasks requested by the line manager</span></li>\r\n</ul>", "owned_id": 94307, "company": {"id": 94307, "display_name": "Athena Studio", "image_logo": "https://assets.topdev.vn/images/2023/09/21/TopDev-c757569febcf399fb4314f05e994ceb1-1695261264.png", "slug": "athena-studio", "detail_url": "https://topdev.vn/nha-tuyen-dung/athena-studio-94307", "image_cover": null, "image_galleries": [], "benefits": [{"value": "Professional, creative working environment and talented teams, equal opportunities & agile culture", "icon": "fa-empire"}, {"value": "Great facility to work. You will have a MacBook and extra high-definition screens", "icon": "fa-laptop"}, {"value": "Electrical standing desk for the most comfortable seat", "icon": "fa-navicon"}, {"value": "Annual leave 12 days / sick leave 2 days / remote work 12 days / anniversary leave 1 day", "icon": "fa-calendar-check-o"}, {"value": "The paternity Leave policy offers more than 10 days of Paid leave, not including days off.", "icon": "fa-check-square"}, {"value": "The remaining Annual leave will be transferred to the next working year", "icon": "fa-check-square"}, {"value": "Premium health insurance package for you and your relatives", "icon": "fa-heartbeat"}, {"value": "Annual health check-up at the premium clinic", "icon": "fa-headphones"}, {"value": "Interesting workout activities: gym/fitness, yoga, kickboxing, football after work", "icon": "fa-soccer-ball-o"}, {"value": "Annual bonus and project bonus", "icon": "fa-money"}, {"value": "Reward program for engaging in activities and volunteering", "icon": "fa-diamond"}, {"value": "Annual company trip & quarter team bonding activities", "icon": "fa-pencil"}, {"value": "Happy hours and awesome parties", "icon": "fa-glass"}, {"value": "Development opportunity: sponsorship for training courses", "icon": "fa-book"}, {"value": "With regular discussions, you will have a lot of opportunities to learn from experts in their fields", "icon": "fa-commenting"}, {"value": "International opportunity to expose and grow", "icon": "fa-child"}, {"value": "We often send our elites to international conferences like GDC, WWDC, Google I/O... to update the latest technology", "icon": "fa-globe"}, {"value": "Additional allowance & gifts for birthdays, giving-birth, weddings, illness, Mid-Autumn Festival, Lunar New Year, 1/1, 1/5, 1/6\u2026", "icon": "fa-birthday-cake"}, {"value": "Pantry booster with food & beverages, game station & entertainment: PS4,...", "icon": "fa-coffee"}, {"value": "Working hours: from Monday to Friday (8:30 -18:00)", "icon": "fa-clock-o"}], "skills_arr": ["C++", "JavaScript", "C#", "Python", "Golang"], "industries_arr": ["Software"], "industries_str": "Software", "is_followed": false}, "extra_skills": [], "skills_arr": ["Product Owner", "Business Analyst"], "skills_ids": [1452, 1456], "job_types_str": "In Office", "job_levels_str": "Senior", "job_levels_arr": ["Senior"], "job_levels_ids": [8666], "addresses": {"address_region_ids": ["79"], "address_region_list": "Th\u00e0nh ph\u1ed1 H\u1ed3 Ch\u00ed Minh", "address_region_array": ["Th\u00e0nh ph\u1ed1 H\u1ed3 Ch\u00ed Minh"], "full_addresses": ["40A Lam S\u01a1n, Ph\u01b0\u1eddng 02, Qu\u1eadn T\u00e2n B\u00ecnh, Th\u00e0nh ph\u1ed1 H\u1ed3 Ch\u00ed Minh"], "sort_addresses": "Qu\u1eadn T\u00e2n B\u00ecnh, H\u1ed3 Ch\u00ed Minh", "collection_addresses": [{"id": 185955, "ward": {"id": "26965", "value": "Ph\u01b0\u1eddng 02"}, "province": {"id": "79", "value": "Th\u00e0nh ph\u1ed1 H\u1ed3 Ch\u00ed Minh"}, "district": {"id": "766", "value": "Qu\u1eadn T\u00e2n B\u00ecnh"}, "postal_code": "700000", "full_address": "40A Lam S\u01a1n, Ph\u01b0\u1eddng 02, Qu\u1eadn T\u00e2n B\u00ecnh, Th\u00e0nh ph\u1ed1 H\u1ed3 Ch\u00ed Minh", "latitude": null, "longitude": null, "street": "40A Lam S\u01a1n"}]}, "detail_url": "https://topdev.vn/viec-lam/business-analyst-product-owner-athena-studio-2031527", "job_url": "", "slug": "business-analyst-product-owner-athena-studio", "salary": {"is_negotiable": "1", "unit": "MONTH", "min": 0, "max": 0, "currency": "VND", "min_estimate": "0", "max_estimate": "0", "currency_estimate": "VND", "value": "Th\u01b0\u01a1ng l\u01b0\u1ee3ng"}, "features": [], "packages": ["basic-plus"], "is_free": false, "is_basic": false, "is_basic_plus": true, "is_distinction": false, "is_salary_visible": true, "published": {"date": "21-09-2023", "datetime": "00:00:00 21-09-2023", "since": "3 tu\u1ea7n tr\u01b0\u1edbc"}, "refreshed": {"date": "11-10-2023", "datetime": "02:00:11 11-10-2023", "since": "4 ng\u00e0y tr\u01b0\u1edbc"}, "applied": null, "candidate": null, "is_applied": false, "is_followed": false, "is_blacklisted": false, "recalled_at": null, "is_remove_cv": false, "is_viewed": false, "requirements_arr": [{"value": ["KNOWLEDGE:"], "icon": null}, {"value": ["B.S degree, B.A degree in Computer Science or Business Information System", "Knowledge of the software development process, especially software requirement analysis", "At least 3 years of working experience in BA/PO roles", "Work experience in financial/ blockchain products", "Plus: Work experience in Agile/Scrum Development Team"], "icon": "fa-circle"}, {"value": ["SKILL & ABILITY:"], "icon": null}, {"value": ["Experience in the process of testing and people training", "Good presentation and documentation skills", "Good analytical and critical thinking", "Excellent communication skills in both English, Vietnamese and interpersonal skill", "The ability to write SQL queries is plus", "Strong self-discipline but be mindful of everyone", "An excellent listener and good at other communication skills", "Good innovation skills: tend to innovate the hard-to-change traditions", "Growth Mindset: embrace the challenge and learn", "Willingness to listen and calmly, patiently champion ideas to others"], "icon": "fa-circle"}]}, {"id": 2031531, "title": "Chuy\u00ean vi\u00ean L\u1eadp tr\u00ecnh Back-end (Java, PHP, Python)", "content": "", "owned_id": 94308, "company": {"id": 94308, "display_name": "C\u00d4NG TY D\u1ecaCH V\u1ee4 MOBIFONE KHU V\u1ef0C 1 - CHI NH\u00c1NH T\u1ed4NG C\u00d4NG TY VI\u1ec4N TH\u00d4NG MOBIFONE(Mobifone KV1)", "image_logo": "https://assets.topdev.vn/images/2023/09/21/TopDev-177549202_3257575151011644_534526205120950655_n---1-MOBIFONE-1695262160.png", "slug": "cong-ty-dich-vu-mobifone-khu-vuc-1-chi-nhanh-tong-cong-ty-vien-thong-mobifone-mobifone-kv1", "detail_url": "https://topdev.vn/nha-tuyen-dung/cong-ty-dich-vu-mobifone-khu-vuc-1-chi-nhanh-tong-cong-ty-vien-thong-mobifone-mobifone-kv1-94308", "image_cover": "https://assets.topdev.vn/images/2023/09/21/TopDev-837fa632584f093eaa36fdb4d2a64f12-65041ae6d24e8---1-MOBIFONE-1695262161.jpg", "image_galleries": [{"id": 480486, "url": "https://assets.topdev.vn/images/2023/09/21/TopDev-b28456f7645a4c53943e0b423a8c0a30-1695262161.jpg", "path": "/images/2023/09/21/TopDev-b28456f7645a4c53943e0b423a8c0a30-1695262161.jpg", "name": "b28456f7645a4c53943e0b423a8c0a30.jpg", "uploaded": {"date": "21-09-2023", "datetime": "2023-09-21 09:09:21", "since": "2 weeks ago", "timestamp": 1695262161}, "source": "Unknown"}, {"id": 480487, "url": "https://assets.topdev.vn/images/2023/09/21/TopDev-837fa632584f093eaa36fdb4d2a64f12-65041ae696d56---1-MOBIFONE-%281%29-1695262161.jpg", "path": "/images/2023/09/21/TopDev-837fa632584f093eaa36fdb4d2a64f12-65041ae696d56---1-MOBIFONE-(1)-1695262161.jpg", "name": "837fa632584f093eaa36fdb4d2a64f12-65041ae696d56 - 1 MOBIFONE (1).jpg", "uploaded": {"date": "21-09-2023", "datetime": "2023-09-21 09:09:22", "since": "2 weeks ago", "timestamp": 1695262162}, "source": "Unknown"}, {"id": 480488, "url": "https://assets.topdev.vn/images/2023/09/21/TopDev-837fa632584f093eaa36fdb4d2a64f12-65041ae6ee896---1-MOBIFONE-1695262162.jpg", "path": "/images/2023/09/21/TopDev-837fa632584f093eaa36fdb4d2a64f12-65041ae6ee896---1-MOBIFONE-1695262162.jpg", "name": "837fa632584f093eaa36fdb4d2a64f12-65041ae6ee896 - 1 MOBIFONE.jpg", "uploaded": {"date": "21-09-2023", "datetime": "2023-09-21 09:09:23", "since": "2 weeks ago", "timestamp": 1695262163}, "source": "Unknown"}, {"id": 480489, "url": "https://assets.topdev.vn/images/2023/09/21/TopDev-7c27ecaaf574f068cf1541b1e1d42935-65041ae732018---1-MOBIFONE-1695262163.jpg", "path": "/images/2023/09/21/TopDev-7c27ecaaf574f068cf1541b1e1d42935-65041ae732018---1-MOBIFONE-1695262163.jpg", "name": "7c27ecaaf574f068cf1541b1e1d42935-65041ae732018 - 1 MOBIFONE.jpg", "uploaded": {"date": "21-09-2023", "datetime": "2023-09-21 09:09:23", "since": "2 weeks ago", "timestamp": 1695262163}, "source": "Unknown"}], "benefits": [{"value": "Tham gia c\u00e1c ch\u01b0\u01a1ng tr\u00ecnh b\u1ea3o hi\u1ec3m s\u1ee9c kho\u1ebb t\u1ea1i c\u00e1c C\u00f4ng ty B\u1ea3o hi\u1ec3m l\u1edbn, c\u00f3 uy t\u00edn (B\u1ea3o Minh, B\u1ea3o hi\u1ec3m h\u00e0ng kh\u00f4ng, PVI\u2026). Gi\u00e1 tr\u1ecb b\u1ea3o hi\u1ec3m l\u00ean t\u1edbi 400 tri\u1ec7u/n\u0103m.", "icon": "fa-pencil"}, {"value": "\u0110\u01b0\u1ee3c tham gia c\u00e1c kh\u00f3a \u0111\u00e0o t\u1ea1o \u0111\u1ec3 n\u00e2ng cao ki\u1ebfn th\u1ee9c, chuy\u00ean m\u00f4n.", "icon": "fa-pencil"}, {"value": "\u0110\u01b0\u1ee3c h\u01b0\u1edfng ch\u1ebf \u0111\u1ed9 \u0111i\u1ec7n tho\u1ea1i li\u00ean l\u1ea1c nghi\u1ec7p v\u1ee5 cho CB-CNV v\u00e0 c\u00e1c ch\u1ebf \u0111\u1ed9 \u01b0u \u0111\u00e3i khi s\u1eed d\u1ee5ng c\u00e1c d\u1ecbch v\u1ee5 c\u1ee7a MobiFone.", "icon": "fa-pencil"}, {"value": "Ph\u00fac l\u1ee3i: ngh\u1ec9 m\u00e1t, du xu\u00e2n, kh\u00e1m s\u1ee9c kh\u1ecfe h\u00e0ng n\u0103m, tr\u1ee3 c\u1ea5p \u1ed1m \u0111au, hi\u1ebfu, h\u1ec9\u2026", "icon": "fa-pencil"}, {"value": "Ngh\u1ec9 ng\u00e0y th\u1ee9 7 v\u00e0 ch\u1ee7 nh\u1eadt.", "icon": "fa-pencil"}], "skills_arr": ["Cloud", "Iot", "5G", "3G", "4G LTE"], "industries_arr": ["D\u1ecbch v\u1ee5 doanh nghi\u1ec7p"], "industries_str": "D\u1ecbch v\u1ee5 doanh nghi\u1ec7p", "is_followed": false}, "extra_skills": [], "skills_arr": ["PHP", "Java", "Python", "Back-End", "Software Developer"], "skills_ids": [1, 21, 34, 210, 382], "job_types_str": "In Office", "job_levels_str": "All Levels", "job_levels_arr": ["All Levels"], "job_levels_ids": [8765], "addresses": {"address_region_ids": ["01"], "address_region_list": "Th\u00e0nh ph\u1ed1 H\u00e0 N\u1ed9i", "address_region_array": ["Th\u00e0nh ph\u1ed1 H\u00e0 N\u1ed9i"], "full_addresses": ["01 S\u1ed1 1 \u0111\u01b0\u1eddng Ph\u1ea1m V\u0103n B\u1ea1ch, Ph\u01b0\u1eddng Y\u00ean Ho\u00e0, Qu\u1eadn C\u1ea7u Gi\u1ea5y, Th\u00e0nh ph\u1ed1 H\u00e0 N\u1ed9i"], "sort_addresses": "Qu\u1eadn C\u1ea7u Gi\u1ea5y, H\u00e0 N\u1ed9i", "collection_addresses": [{"id": 185956, "ward": {"id": "00172", "value": "Ph\u01b0\u1eddng Y\u00ean Ho\u00e0"}, "province": {"id": "01", "value": "Th\u00e0nh ph\u1ed1 H\u00e0 N\u1ed9i"}, "district": {"id": "005", "value": "Qu\u1eadn C\u1ea7u Gi\u1ea5y"}, "postal_code": "100000", "full_address": "01 S\u1ed1 1 \u0111\u01b0\u1eddng Ph\u1ea1m V\u0103n B\u1ea1ch, Ph\u01b0\u1eddng Y\u00ean Ho\u00e0, Qu\u1eadn C\u1ea7u Gi\u1ea5y, Th\u00e0nh ph\u1ed1 H\u00e0 N\u1ed9i", "latitude": null, "longitude": null, "street": "01 S\u1ed1 1 \u0111\u01b0\u1eddng Ph\u1ea1m V\u0103n B\u1ea1ch"}]}, "detail_url": "https://topdev.vn/viec-lam/chuyen-vien-lap-trinh-back-end-java-php-python-cong-ty-dich-vu-mobifone-khu-vuc-1-chi-nhanh-tong-cong-ty-vien-thong-mobifone-mobifone-kv1-2031531", "job_url": "", "slug": "chuyen-vien-lap-trinh-back-end-java-php-python-cong-ty-dich-vu-mobifone-khu-vuc-1-chi-nhanh-tong-cong-ty-vien-thong-mobifone-mobifone-kv1", "salary": {"is_negotiable": "1", "unit": "MONTH", "min": 0, "max": 0, "currency": "VND", "min_estimate": "0", "max_estimate": "0", "currency_estimate": "VND", "value": "Th\u01b0\u01a1ng l\u01b0\u1ee3ng"}, "features": [], "packages": ["basic-plus"], "is_free": false, "is_basic": false, "is_basic_plus": true, "is_distinction": false, "is_salary_visible": true, "published": {"date": "21-09-2023", "datetime": "00:00:00 21-09-2023", "since": "3 tu\u1ea7n tr\u01b0\u1edbc"}, "refreshed": {"date": "11-10-2023", "datetime": "02:00:10 11-10-2023", "since": "4 ng\u00e0y tr\u01b0\u1edbc"}, "applied": null, "candidate": null, "is_applied": false, "is_followed": false, "is_blacklisted": false, "recalled_at": null, "is_remove_cv": false, "is_viewed": false, "requirements_arr": [{"value": ["C\u00f3 ki\u1ebfn th\u1ee9c v\u00e0 kh\u1ea3 n\u0103ng s\u1eed d\u1ee5ng th\u00e0nh th\u1ea1o m\u1ed9t trong c\u00e1c ng\u00f4n ng\u1eef l\u1eadp tr\u00ecnh nh\u01b0 python, java, c++, xml, .Net, CSS,...", "Hi\u1ec3u bi\u1ebft v\u1ec1 c\u00e1c quy tr\u00ecnh ph\u00e1t tri\u1ec3n ph\u1ea7n m\u1ec1m v\u00e0 c\u00e1c c\u00f4ng c\u1ee5 ph\u00e1t tri\u1ec3n ph\u1ea7n m\u1ec1m ph\u1ed5 bi\u1ebfn.", "C\u00f3 ki\u1ebfn th\u1ee9c t\u1ed1t v\u1ec1 ki\u1ebfn tr\u00fac v\u00e0 kh\u1ea3 n\u0103ng t\u1ed1i \u01b0u code/d\u1eef li\u1ec7u.", "\u01afu ti\u00ean \u1ee9ng vi\u00ean c\u00f3 kinh nghi\u1ec7m l\u00e0m vi\u1ec7c v\u1edbi d\u1ef1 \u00e1n th\u1ef1c t\u1ebf."], "icon": "fa-circle"}]}], "links": {"first": null, "last": null, "prev": "http://api.topdev.vn/td/v2/jobs/?page=74", "next": null}, "meta": {"total": 743, "per_page": 10, "current_page": 75, "last_page": 75, "from": 741, "to": 743}}